[gd_scene load_steps=3 format=2]

[ext_resource path="res://gunshot.wav" type="AudioStream" id=1]
[ext_resource path="res://GunshotSound.gd" type="Script" id=2]

[node name="GunshotSound" type="AudioStreamPlayer2D"]
stream = ExtResource( 1 )
autoplay = true
script = ExtResource( 2 )

[node name="Timer" type="Timer" parent="."]

[connection signal="timeout" from="Timer" to="." method="_on_Timer_timeout"]
