[gd_scene load_steps=4 format=2]

[ext_resource path="res://power-up.png" type="Texture" id=1]
[ext_resource path="res://PowerUp.gd" type="Script" id=2]

[sub_resource type="RectangleShape2D" id=1]
extents = Vector2( 30.1656, 29.834 )

[node name="PowerUp" type="Sprite"]
position = Vector2( -0.194345, 0.159207 )
scale = Vector2( 0.480869, 0.480869 )
texture = ExtResource( 1 )
script = ExtResource( 2 )

[node name="Area2D" type="Area2D" parent="."]

[node name="CollisionShape2D" type="CollisionShape2D" parent="Area2D"]
position = Vector2( 0.282722, -0.0848846 )
shape = SubResource( 1 )

[node name="Timer" type="Timer" parent="."]
wait_time = 5.0
one_shot = true
autostart = true
[connection signal="body_entered" from="Area2D" to="." method="_on_Area2D_body_entered"]
[connection signal="timeout" from="Timer" to="." method="_on_Timer_timeout"]
